Replace Part HS_LVL_SHIFT1 74AVC1T45GS,132 in C:\Users\Hall\Desktop\scum3_pcb\scum3\scum3.SchDoc with 74AVC1T45GS,132 from scum3_lib.SchLib
Replace Part HS_LVL_SHIFT2 74AVC1T45GS,132 in C:\Users\Hall\Desktop\scum3_pcb\scum3\scum3.SchDoc with 74AVC1T45GS,132 from scum3_lib.SchLib
Replace Part HS_LVL_SHIFT3 74AVC1T45GS,132 in C:\Users\Hall\Desktop\scum3_pcb\scum3\scum3.SchDoc with 74AVC1T45GS,132 from scum3_lib.SchLib
Replace Part HS_LVL_SHIFT4 74AVC1T45GS,132 in C:\Users\Hall\Desktop\scum3_pcb\scum3\scum3.SchDoc with 74AVC1T45GS,132 from scum3_lib.SchLib
Replace Part HS_LVL_SHIFT5 74AVC1T45GS,132 in C:\Users\Hall\Desktop\scum3_pcb\scum3\scum3.SchDoc with 74AVC1T45GS,132 from scum3_lib.SchLib
Replace Part HS_LVL_SHIFT6 74AVC1T45GS,132 in C:\Users\Hall\Desktop\scum3_pcb\scum3\scum3.SchDoc with 74AVC1T45GS,132 from scum3_lib.SchLib
Replace Part HS_LVL_SHIFT7 74AVC1T45GS,132 in C:\Users\Hall\Desktop\scum3_pcb\scum3\scum3.SchDoc with 74AVC1T45GS,132 from scum3_lib.SchLib
Replace Part HS_LVL_SHIFT8 74AVC1T45GS,132 in C:\Users\Hall\Desktop\scum3_pcb\scum3\scum3.SchDoc with 74AVC1T45GS,132 from scum3_lib.SchLib
Replace Part HS_LVL_SHIFT9 74AVC1T45GS,132 in C:\Users\Hall\Desktop\scum3_pcb\scum3\scum3.SchDoc with 74AVC1T45GS,132 from scum3_lib.SchLib
Replace Part HS_LVL_SHIFT10 74AVC1T45GS,132 in C:\Users\Hall\Desktop\scum3_pcb\scum3\scum3.SchDoc with 74AVC1T45GS,132 from scum3_lib.SchLib
Replace Part HS_LVL_SHIFT11 74AVC1T45GS,132 in C:\Users\Hall\Desktop\scum3_pcb\scum3\scum3.SchDoc with 74AVC1T45GS,132 from scum3_lib.SchLib
Replace Part HS_LVL_SHIFT12 74AVC1T45GS,132 in C:\Users\Hall\Desktop\scum3_pcb\scum3\scum3.SchDoc with 74AVC1T45GS,132 from scum3_lib.SchLib
Replace Part HS_LVL_SHIFT13 74AVC1T45GS,132 in C:\Users\Hall\Desktop\scum3_pcb\scum3\scum3.SchDoc with 74AVC1T45GS,132 from scum3_lib.SchLib
Replace Part HS_LVL_SHIFT14 74AVC1T45GS,132 in C:\Users\Hall\Desktop\scum3_pcb\scum3\scum3.SchDoc with 74AVC1T45GS,132 from scum3_lib.SchLib
Replace Part HS_LVL_SHIFT15 74AVC1T45GS,132 in C:\Users\Hall\Desktop\scum3_pcb\scum3\scum3.SchDoc with 74AVC1T45GS,132 from scum3_lib.SchLib
Replace Part HS_LVL_SHIFT16 74AVC1T45GS,132 in C:\Users\Hall\Desktop\scum3_pcb\scum3\scum3.SchDoc with 74AVC1T45GS,132 from scum3_lib.SchLib
Replace Part HS_LVL_SHIFT17 74AVC1T45GS,132 in C:\Users\Hall\Desktop\scum3_pcb\scum3\scum3.SchDoc with 74AVC1T45GS,132 from scum3_lib.SchLib
Replace Part HS_LVL_SHIFT18 74AVC1T45GS,132 in C:\Users\Hall\Desktop\scum3_pcb\scum3\scum3.SchDoc with 74AVC1T45GS,132 from scum3_lib.SchLib
Replace Part HS_LVL_SHIFT19 74AVC1T45GS,132 in C:\Users\Hall\Desktop\scum3_pcb\scum3\scum3.SchDoc with 74AVC1T45GS,132 from scum3_lib.SchLib
Replace Part LDO_25V PM-REG-LP5900-IL7 in C:\Users\Hall\Desktop\scum3_pcb\scum3\scum3.SchDoc with PM-REG-LP5900-IL7 from Altium Content Vault
Replace Part LDO_33Va PM-REG-LP5900-IL7 in C:\Users\Hall\Desktop\scum3_pcb\scum3\scum3.SchDoc with PM-REG-LP5900-IL7 from Altium Content Vault
Replace Part LDO_33Vb PM-REG-LP5900-IL7 in C:\Users\Hall\Desktop\scum3_pcb\scum3\scum3.SchDoc with PM-REG-LP5900-IL7 from Altium Content Vault
Replace Part LDO_VDDA TPS7A8400RGRR in C:\Users\Hall\Desktop\scum3_pcb\scum3\scum3.SchDoc with TPS7A8400RGRR from scum3_lib.SchLib
Replace Part LDO_VDDD TPS7A8400RGRR in C:\Users\Hall\Desktop\scum3_pcb\scum3\scum3.SchDoc with TPS7A8400RGRR from scum3_lib.SchLib
Replace Part LDO_VDDPA TPS7A8400RGRR in C:\Users\Hall\Desktop\scum3_pcb\scum3\scum3.SchDoc with TPS7A8400RGRR from scum3_lib.SchLib
Replace Part LDO_VDDRFAUX TPS7A8400RGRR in C:\Users\Hall\Desktop\scum3_pcb\scum3\scum3.SchDoc with TPS7A8400RGRR from scum3_lib.SchLib
Replace Part LDO_VDDRING TPS7A8400RGRR in C:\Users\Hall\Desktop\scum3_pcb\scum3\scum3.SchDoc with TPS7A8400RGRR from scum3_lib.SchLib
Replace Part LS_LVL_SHIFT1 MAX13003EEUE in C:\Users\Hall\Desktop\scum3_pcb\scum3\scum3.SchDoc with MAX13003EEUE from scum3_lib.SchLib
Replace Part LS_LVL_SHIFT2 MAX13003EEUE in C:\Users\Hall\Desktop\scum3_pcb\scum3\scum3.SchDoc with MAX13003EEUE from scum3_lib.SchLib
Replace Part LS_LVL_SHIFT3 MAX13003EEUE in C:\Users\Hall\Desktop\scum3_pcb\scum3\scum3.SchDoc with MAX13003EEUE from scum3_lib.SchLib
Replace Part LS_LVL_SHIFT4 MAX13003EEUE in C:\Users\Hall\Desktop\scum3_pcb\scum3\scum3.SchDoc with MAX13003EEUE from scum3_lib.SchLib
Replace Part MCU1 teensy_mcu in C:\Users\Hall\Desktop\scum3_pcb\scum3\scum3.SchDoc with teensy_mcu from scum3_lib.SchLib
Replace Part P1 fpga_header_1 in C:\Users\Hall\Desktop\scum3_pcb\scum3\scum3.SchDoc with fpga_header_1 from scum3_lib.SchLib
Replace Part P2 fpga_header_1 in C:\Users\Hall\Desktop\scum3_pcb\scum3\scum3.SchDoc with fpga_header_1 from scum3_lib.SchLib
Replace Part SCUM scum3 in C:\Users\Hall\Desktop\scum3_pcb\scum3\scum3.SchDoc with scum3 from scum3_lib.SchLib
Replace Part SHIFT_I2C ONSC-PCA9535E-24 in C:\Users\Hall\Desktop\scum3_pcb\scum3\scum3.SchDoc with ONSC-PCA9535E-24 from Altium Content Vault
Replace Part SHIFT_REG1 NXP-74HC595D-SOP-16 in C:\Users\Hall\Desktop\scum3_pcb\scum3\scum3.SchDoc with NXP-74HC595D-SOP-16 from Altium Content Vault
Replace Part SHIFT_REG2 NXP-74HC595D-SOP-16 in C:\Users\Hall\Desktop\scum3_pcb\scum3\scum3.SchDoc with NXP-74HC595D-SOP-16 from Altium Content Vault
Replace Part USB1 COM-USB-FT231XS-IL20 in C:\Users\Hall\Desktop\scum3_pcb\scum3\scum3.SchDoc with COM-USB-FT231XS-IL20 from Altium Content Vault
