Added Pin To Net: NetName=GND Pin=LDO_OVERRIDE-37
Added Pin To Net: NetName=GND Pin=LDO_OVERRIDE-38
Added Pin To Net: NetName=GND Pin=LDO_OVERRIDE-39
Added Pin To Net: NetName=GND Pin=LDO_OVERRIDE-40
Added Pin To Net: NetName=GND Pin=LDO_OVERRIDE-41
Added Pin To Net: NetName=GND Pin=LDO_OVERRIDE-42
Added Pin To Net: NetName=GND Pin=LDO_OVERRIDE-43
Added Pin To Net: NetName=GND Pin=LDO_OVERRIDE-44
Added Pin To Net: NetName=GND Pin=LDO_OVERRIDE-45
Added Pin To Net: NetName=GND Pin=LDO_OVERRIDE-46
Added Pin To Net: NetName=GND Pin=LDO_OVERRIDE-47
Added Pin To Net: NetName=GND Pin=LDO_OVERRIDE-48
Added Pin To Net: NetName=GND Pin=LDO_OVERRIDE-49
Added Pin To Net: NetName=GND Pin=LDO_OVERRIDE-50
Added Pin To Net: NetName=GND Pin=LDO_OVERRIDE-51
Added Pin To Net: NetName=GND Pin=LDO_OVERRIDE-52
Added Pin To Net: NetName=GND Pin=LDO_OVERRIDE-53
Added Pin To Net: NetName=GND Pin=LDO_OVERRIDE-54
