Change Component Designator: OldDesignator=C50a_1 NewDesignator=C52a
Change Component Designator: OldDesignator=C50b_1 NewDesignator=C52b
Change Component Designator: OldDesignator=C50c_1 NewDesignator=C52c
Change Component Designator: OldDesignator=C50d_1 NewDesignator=C52d
Change Component Designator: OldDesignator=C51a_1 NewDesignator=C53a
Change Component Designator: OldDesignator=C51b_1 NewDesignator=C53b
Change Component Designator: OldDesignator=Cf,ac44_1 NewDesignator=Cf,ac45
Change Component Designator: OldDesignator=Cf,n44_1 NewDesignator=Cf,n45
Change Component Designator: OldDesignator=Cf,p44_1 NewDesignator=Cf,p45
Change Component Designator: OldDesignator=Cin44_1 NewDesignator=Cin45
Change Component Designator: OldDesignator=Cout51_1 NewDesignator=Cout53
Change Component Designator: OldDesignator=LNA3_1 NewDesignator=LNA4
Change Component Designator: OldDesignator=OA5_1 NewDesignator=OA7
Change Component Designator: OldDesignator=OA6_1 NewDesignator=OA8
Change Component Designator: OldDesignator=Qin,R_1 NewDesignator=Iin,R
Change Component Designator: OldDesignator=Qout,R_1 NewDesignator=Iout,R
Change Component Designator: OldDesignator=R1_44_1 NewDesignator=R1_45
Change Component Designator: OldDesignator=R2_44_1 NewDesignator=R2_45
Change Component Designator: OldDesignator=R51a_1 NewDesignator=R53a
Change Component Designator: OldDesignator=R51b_1 NewDesignator=R53b
Change Component Designator: OldDesignator=R51c_1 NewDesignator=R53c
Change Component Designator: OldDesignator=R51d_1 NewDesignator=R53d
Change Component Designator: OldDesignator=Rf,n44_1 NewDesignator=Rf,n45
Change Component Designator: OldDesignator=Rf,p44_1 NewDesignator=Rf,p45
Change Component Designator: OldDesignator=Ri,n44_1 NewDesignator=Ri,n45
Change Component Designator: OldDesignator=Ri,p44_1 NewDesignator=Ri,p45
Change Component Designator: OldDesignator=Rout51_1 NewDesignator=Rout53
Added Pin To Net: NetName=GND Pin=C52a-1
Added Pin To Net: NetName=VCC2 Pin=C52a-2
Added Pin To Net: NetName=GND Pin=C52b-1
Added Pin To Net: NetName=VCC2 Pin=C52b-2
Added Pin To Net: NetName=GND Pin=C52c-1
Added Pin To Net: NetName=VCC2 Pin=C52c-2
Added Pin To Net: NetName=GND Pin=C52d-1
Added Pin To Net: NetName=VCC2 Pin=C52d-2
Added Pin To Net: NetName=GND Pin=C53a-1
Added Pin To Net: NetName=VCC2 Pin=C53a-2
Added Pin To Net: NetName=GND Pin=C53b-1
Added Pin To Net: NetName=VCC2 Pin=C53b-2
Added Pin To Net: NetName=GND Pin=Cf,ac45-1
Added Pin To Net: NetName=NetCf,ac45_2 Pin=Cf,ac45-2
Added Pin To Net: NetName=NetCf,n45_1 Pin=Cf,n45-1
Added Pin To Net: NetName=IF_DBG_IN_IP_RING Pin=Cf,n45-2
Added Pin To Net: NetName=NetCf,p45_1 Pin=Cf,p45-1
Added Pin To Net: NetName=IF_DBG_IN_IN_RING Pin=Cf,p45-2
Added Pin To Net: NetName=NetCin45_1 Pin=Cin45-1
Added Pin To Net: NetName=NetCin45_2 Pin=Cin45-2
Added Pin To Net: NetName=NetCout53_1 Pin=Cout53-1
Added Pin To Net: NetName=NetCout53_2 Pin=Cout53-2
Added Pin To Net: NetName=NetCin45_1 Pin=Iin,R-1
Added Pin To Net: NetName=NetCout53_1 Pin=Iout,R-1
Added Pin To Net: NetName=GND Pin=Iout,R-MH
Added Pin To Net: NetName=GND Pin=Iout,R-MH
Added Pin To Net: NetName=GND Pin=Iout,R-MH
Added Pin To Net: NetName=GND Pin=Iout,R-MH
Added Pin To Net: NetName=NetCf,n45_1 Pin=LNA4-1
Added Pin To Net: NetName=Vocm Pin=LNA4-2
Added Pin To Net: NetName=VCC Pin=LNA4-3
Added Pin To Net: NetName=IF_DBG_IN_IP_RING Pin=LNA4-4
Added Pin To Net: NetName=IF_DBG_IN_IN_RING Pin=LNA4-5
Added Pin To Net: NetName=GND Pin=LNA4-6
Added Pin To Net: NetName=VCC Pin=LNA4-7
Added Pin To Net: NetName=NetCf,p45_1 Pin=LNA4-8
Added Pin To Net: NetName=GND Pin=LNA4-9
Added Pin To Net: NetName=NetOA7_1 Pin=OA7-1
Added Pin To Net: NetName=IF_DBG_OUT_IN_RING Pin=OA7-2
Added Pin To Net: NetName=GND Pin=OA7-4
Added Pin To Net: NetName=NetOA7_5 Pin=OA7-5
Added Pin To Net: NetName=VCC2 Pin=OA7-6
Added Pin To Net: NetName=VCC2 Pin=OA7-7
Added Pin To Net: NetName=NetOA7_8 Pin=OA7-8
Added Pin To Net: NetName=NetOA7_8 Pin=OA7-9
Added Pin To Net: NetName=IF_DBG_OUT_IP_RING Pin=OA7-10
Added Pin To Net: NetName=GND Pin=OA7-12
Added Pin To Net: NetName=NetOA7_13 Pin=OA7-13
Added Pin To Net: NetName=VCC2 Pin=OA7-14
Added Pin To Net: NetName=VCC2 Pin=OA7-15
Added Pin To Net: NetName=NetOA7_1 Pin=OA7-16
Added Pin To Net: NetName=GND Pin=OA7-17
Added Pin To Net: NetName=VCC2 Pin=OA8-1
Added Pin To Net: NetName=NetOA8_2 Pin=OA8-2
Added Pin To Net: NetName=NetOA8_3 Pin=OA8-3
Added Pin To Net: NetName=NetOA8_4 Pin=OA8-4
Added Pin To Net: NetName=GND Pin=OA8-5
Added Pin To Net: NetName=NetOA8_7 Pin=OA8-7
Added Pin To Net: NetName=VCC2 Pin=OA8-8
Added Pin To Net: NetName=GND Pin=OA8-9
Added Pin To Net: NetName=NetCf,ac45_2 Pin=R1_45-1
Added Pin To Net: NetName=NetCin45_2 Pin=R1_45-2
Added Pin To Net: NetName=NetR2_45_1 Pin=R2_45-1
Added Pin To Net: NetName=NetCf,ac45_2 Pin=R2_45-2
Added Pin To Net: NetName=NetOA8_3 Pin=R53a-1
Added Pin To Net: NetName=NetOA7_13 Pin=R53a-2
Added Pin To Net: NetName=NetOA8_2 Pin=R53b-1
Added Pin To Net: NetName=NetOA8_3 Pin=R53b-2
Added Pin To Net: NetName=NetOA8_4 Pin=R53c-1
Added Pin To Net: NetName=NetOA7_5 Pin=R53c-2
Added Pin To Net: NetName=NetOA8_4 Pin=R53d-1
Added Pin To Net: NetName=GND Pin=R53d-2
Added Pin To Net: NetName=NetCf,n45_1 Pin=Rf,n45-1
Added Pin To Net: NetName=IF_DBG_IN_IP_RING Pin=Rf,n45-2
Added Pin To Net: NetName=IF_DBG_IN_IN_RING Pin=Rf,p45-1
Added Pin To Net: NetName=NetCf,p45_1 Pin=Rf,p45-2
Added Pin To Net: NetName=NetCin45_2 Pin=Ri,n45-1
Added Pin To Net: NetName=NetCf,n45_1 Pin=Ri,n45-2
Added Pin To Net: NetName=NetCf,p45_1 Pin=Ri,p45-1
Added Pin To Net: NetName=NetR2_45_1 Pin=Ri,p45-2
Added Pin To Net: NetName=NetCout53_2 Pin=Rout53-1
Added Pin To Net: NetName=NetOA8_7 Pin=Rout53-2
