Removed Pin From Net: NetName=VIN_PCB Pin=LDO_VBAT-4
Removed Pin From Net: NetName=ASC_802_33 Pin=MCU1-3
Added Pin To Net: NetName=LDO_VBAT_EN Pin=LDO_VBAT-4
Added Pin To Net: NetName=LDO_VBAT_EN Pin=MCU1-3
Added Net: Name=LDO_VBAT_EN
