Replace Part LDO_OVERRIDE ldo_jumpers in C:\Users\Hall\Desktop\scum3_pcb\scum3\scum3.SchDoc with ldo_jumpers from scum3_lib.SchLib
Replace Part MCU1 teensy_mcu in C:\Users\Hall\Desktop\scum3_pcb\scum3\scum3.SchDoc with teensy_mcu from scum3_lib.SchLib
Replace Part SCUM scum3 in C:\Users\Hall\Desktop\scum3_pcb\scum3\scum3.SchDoc with scum3 from scum3_lib.SchLib
