Replace Part J_I adc_header in C:\Users\hall\Desktop\scum3_pcb\scum3\scum3.SchDoc with adc_header from scum3_lib.SchLib
Replace Part J_Q adc_header in C:\Users\hall\Desktop\scum3_pcb\scum3\scum3.SchDoc with adc_header from scum3_lib.SchLib
Replace Part LDO_OVERRIDE ldo_jumpers in C:\Users\hall\Desktop\scum3_pcb\scum3\scum3.SchDoc with ldo_jumpers from scum3_lib.SchLib
Replace Part LDO_VDDA TPS7A8400RGRR in C:\Users\hall\Desktop\scum3_pcb\scum3\scum3.SchDoc with TPS7A8400RGRR from scum3_lib.SchLib
Replace Part LDO_VDDD TPS7A8400RGRR in C:\Users\hall\Desktop\scum3_pcb\scum3\scum3.SchDoc with TPS7A8400RGRR from scum3_lib.SchLib
Replace Part LDO_VDDPA TPS7A8400RGRR in C:\Users\hall\Desktop\scum3_pcb\scum3\scum3.SchDoc with TPS7A8400RGRR from scum3_lib.SchLib
Replace Part LDO_VDDRFAUX TPS7A8400RGRR in C:\Users\hall\Desktop\scum3_pcb\scum3\scum3.SchDoc with TPS7A8400RGRR from scum3_lib.SchLib
Replace Part LDO_VDDRING TPS7A8400RGRR in C:\Users\hall\Desktop\scum3_pcb\scum3\scum3.SchDoc with TPS7A8400RGRR from scum3_lib.SchLib
Replace Part MCU1 teensy_mcu in C:\Users\hall\Desktop\scum3_pcb\scum3\scum3.SchDoc with teensy_mcu from scum3_lib.SchLib
Replace Part SCUM scum3 in C:\Users\hall\Desktop\scum3_pcb\scum3\scum3.SchDoc with scum3 from scum3_lib.SchLib
