M48
;Layer_Color=9474304
;FILE_FORMAT=2:5
INCH
;TYPE=PLATED
T3F00S00C0.02559
T5F00S00C0.03248
%
G90
G05
T03
G00X0682590Y0377268
M15
G01X0681803
M16
G00X0682590Y0394787
M15
G01X0681803
M16
T05
G00X0695829Y0369935
M15
G01X0693171
M16
G00X0695829Y0402120
M15
G01X0693171
M16
M17
M30
